<?xml version="1.0" encoding="utf-8"?>
<!-- Generator: Adobe Illustrator 18.0.0, SVG Export Plug-In . SVG Version: 6.00 Build 0)  -->
<!DOCTYPE svg PUBLIC "-//W3C//DTD SVG 1.1//EN" "http://www.w3.org/Graphics/SVG/1.1/DTD/svg11.dtd">
<svg version="1.1" id="Camada_1" xmlns="http://www.w3.org/2000/svg" xmlns:xlink="http://www.w3.org/1999/xlink" x="0px" y="0px"
	 viewBox="0 0 192 44.3" enable-background="new 0 0 192 44.3" xml:space="preserve">
<rect x="0" y="0" fill="#FBAB19" width="192" height="44.3"/>
<g>
	<polygon fill="#FFFFFF" points="53.3,16 52.5,16 52.5,39 56.8,39 56.8,11.8 56.7,11.8 	"/>
	<polygon fill="#FFFFFF" points="46.1,16.6 46.1,39 50.4,39 50.4,16.1 46.5,16.3 	"/>
	<polygon fill="#FFFFFF" points="39.4,39 43.8,39 43.8,18.3 39.4,21.4 	"/>
	<polygon fill="#FFFFFF" points="37.1,23.1 34.8,24.8 32.8,22.1 33,22 32.8,22 32.8,39 37.1,39 	"/>
	<path fill="#FFFFFF" d="M46.5,14.4l6.9-0.4l3.4-4.2c0,0.6,0.6,1.1,1.2,1.1c0.6,0,1.1-0.6,1.1-1.2L59,6.5c0-0.6-0.4-1-1-1.1
		c-0.1-0.1-0.3-0.1-0.5-0.1h-3.2c-0.6,0-1.2,0.5-1.2,1.2c0,0.6,0.5,1.2,1.2,1.2l-2.6,3.2l-6.4,0.4l-12.5,9l1.9,2.7L46.5,14.4z"/>
</g>
<g>
	<path fill="#FFFFFF" d="M103.6,27.2h-1.1v-6.6c0-0.5,0-1.2,0.1-1.9h0c-0.1,0.4-0.2,0.8-0.3,1l-3.3,7.5h-0.6l-3.3-7.5
		c-0.1-0.2-0.2-0.6-0.3-1h0c0,0.4,0.1,1,0.1,1.9v6.6h-1.1v-9.8h1.5l3,6.8c0.2,0.5,0.4,0.9,0.5,1.2h0c0.2-0.5,0.4-0.9,0.5-1.2
		l3.1-6.8h1.4V27.2z"/>
	<path fill="#FFFFFF" d="M111.6,24h-4.9c0,0.8,0.2,1.4,0.6,1.8c0.4,0.4,1,0.6,1.7,0.6c0.8,0,1.5-0.3,2.2-0.8v1.1
		c-0.6,0.4-1.4,0.7-2.4,0.7c-1,0-1.8-0.3-2.3-1c-0.6-0.6-0.8-1.5-0.8-2.7c0-1.1,0.3-2,0.9-2.7c0.6-0.7,1.4-1,2.3-1s1.6,0.3,2.1,0.9
		c0.5,0.6,0.8,1.4,0.8,2.5V24z M110.5,23.1c0-0.6-0.2-1.2-0.5-1.5s-0.7-0.5-1.3-0.5c-0.5,0-1,0.2-1.3,0.6s-0.6,0.9-0.7,1.5H110.5z"
		/>
	<path fill="#FFFFFF" d="M117,21.4c-0.2-0.2-0.5-0.2-0.8-0.2c-0.5,0-0.9,0.2-1.2,0.7s-0.5,1.1-0.5,1.8v3.6h-1.1v-7h1.1v1.4h0
		c0.2-0.5,0.4-0.9,0.7-1.2s0.7-0.4,1.1-0.4c0.3,0,0.5,0,0.7,0.1V21.4z"/>
	<path fill="#FFFFFF" d="M122.8,26.9c-0.5,0.3-1.2,0.5-1.9,0.5c-1,0-1.8-0.3-2.4-1c-0.6-0.6-0.9-1.5-0.9-2.5c0-1.2,0.3-2.1,1-2.8
		c0.7-0.7,1.5-1,2.6-1c0.6,0,1.2,0.1,1.6,0.3v1.1c-0.5-0.4-1.1-0.5-1.7-0.5c-0.7,0-1.3,0.3-1.8,0.8s-0.7,1.2-0.7,2
		c0,0.8,0.2,1.5,0.6,1.9c0.4,0.5,1,0.7,1.7,0.7c0.6,0,1.2-0.2,1.7-0.6V26.9z"/>
	<path fill="#FFFFFF" d="M129.5,27.2h-1.1v-1.1h0c-0.5,0.8-1.2,1.3-2.2,1.3c-0.7,0-1.2-0.2-1.6-0.6c-0.4-0.4-0.6-0.9-0.6-1.5
		c0-1.3,0.8-2.1,2.3-2.3l2.1-0.3c0-1.2-0.5-1.8-1.4-1.8c-0.8,0-1.6,0.3-2.3,0.9v-1.1c0.7-0.4,1.5-0.7,2.4-0.7c1.6,0,2.5,0.9,2.5,2.6
		V27.2z M128.3,23.7l-1.7,0.2c-0.5,0.1-0.9,0.2-1.2,0.4c-0.3,0.2-0.4,0.5-0.4,1c0,0.3,0.1,0.6,0.4,0.8c0.2,0.2,0.6,0.3,1,0.3
		c0.6,0,1-0.2,1.4-0.6s0.5-0.9,0.5-1.5V23.7z"/>
	<path fill="#FFFFFF" d="M137.6,27.2h-1.1V26h0c-0.5,0.9-1.3,1.4-2.4,1.4c-0.9,0-1.6-0.3-2.1-0.9c-0.5-0.6-0.8-1.5-0.8-2.6
		c0-1.2,0.3-2.1,0.9-2.8c0.6-0.7,1.4-1,2.3-1c1,0,1.7,0.4,2.1,1.1h0v-4.3h1.1V27.2z M136.4,24.1v-1c0-0.6-0.2-1-0.6-1.4
		c-0.4-0.4-0.8-0.6-1.4-0.6c-0.7,0-1.2,0.3-1.6,0.8c-0.4,0.5-0.6,1.2-0.6,2.1c0,0.8,0.2,1.4,0.6,1.9c0.4,0.5,0.9,0.7,1.5,0.7
		c0.6,0,1.1-0.2,1.5-0.7S136.4,24.8,136.4,24.1z"/>
	<path fill="#FFFFFF" d="M142.8,27.4c-1,0-1.9-0.3-2.5-1c-0.6-0.7-0.9-1.5-0.9-2.6c0-1.2,0.3-2.1,1-2.8s1.5-1,2.6-1
		c1,0,1.9,0.3,2.4,1c0.6,0.6,0.9,1.5,0.9,2.7c0,1.1-0.3,2-0.9,2.7C144.7,27.1,143.8,27.4,142.8,27.4z M142.8,21
		c-0.7,0-1.3,0.2-1.7,0.7c-0.4,0.5-0.6,1.2-0.6,2c0,0.8,0.2,1.5,0.6,2s1,0.7,1.7,0.7c0.7,0,1.3-0.2,1.7-0.7c0.4-0.5,0.6-1.1,0.6-2
		c0-0.9-0.2-1.5-0.6-2S143.6,21,142.8,21z"/>
</g>
</svg>
