<?xml version="1.0" encoding="utf-8"?>
<!-- Generator: Adobe Illustrator 18.0.0, SVG Export Plug-In . SVG Version: 6.00 Build 0)  -->
<!DOCTYPE svg PUBLIC "-//W3C//DTD SVG 1.1//EN" "http://www.w3.org/Graphics/SVG/1.1/DTD/svg11.dtd">
<svg version="1.1" id="Camada_1" xmlns="http://www.w3.org/2000/svg" xmlns:xlink="http://www.w3.org/1999/xlink" x="0px" y="0px"
	 viewBox="0 0 192 44.3" enable-background="new 0 0 192 44.3" xml:space="preserve">
<rect y="0.1" fill="#41602D" width="192" height="44.3"/>
<g opacity="6.000000e-002">
	<path fill="#FFFFFF" d="M192.2,14.9c-2.8-6.1-8.9-10.3-16-10.3c-9.7,0-17.6,7.9-17.6,17.6c0,9.7,7.9,17.6,17.6,17.6
		c7.1,0,13.2-4.2,16-10.3V14.9z M179.7,32.4h-0.6v4.5h-2.8v-4.5h-1.8v4.5h-2.8v-4.5c-3,0-5.4,0-5.4,0l0.1-2.9c0,0,1.6,0,2.1,0
		c0.6,0,1.1-0.3,1.1-1.3V15.8c0-0.7-0.5-1-1.4-1c-0.9,0-2.1,0-2.1,0v-2.9c0,0,2.7,0,5.5,0V7.5h2.8v4.4h1.8V7.5h2.8V12
		c2.8,0.2,6.4,1.4,6.8,4.3c0.5,3.4-2.3,4.8-2.3,4.8s3.7,0.9,3.7,4.7C187.3,29.6,185.4,32.4,179.7,32.4z"/>
	<path fill="#FFFFFF" d="M178.1,23.3c-0.8,0-1.4,0-1.4,0h-2.2v5.9c0.3,0,1.1,0,3.1,0c3,0,4.4-1.2,4.4-3.4
		C182,23.5,178.9,23.3,178.1,23.3z"/>
	<path fill="#FFFFFF" d="M180.6,17.5c0-2.3-2.7-2.5-4.1-2.5c-1,0-1.7,0-2,0v5.4h3.7C179.2,20.3,180.6,19.5,180.6,17.5z"/>
	<path fill="#FFFFFF" d="M192.2,6.4V3.6c-1.7-1.4-3.5-2.7-5.6-3.6h-6.8C184.6,0.8,188.9,3.1,192.2,6.4z"/>
	<path fill="#FFFFFF" d="M192.2,38c-3.5,3.5-8.1,5.9-13.2,6.5h7.4c2.1-1,4.1-2.2,5.8-3.7V38z"/>
	<path fill="#FFFFFF" d="M166,44.5h7.4c-11.1-1.4-19.7-10.8-19.7-22.3c0-11.2,8.2-20.5,18.9-22.2h-6.8c-8.3,3.9-14.1,12.4-14.1,22.2
		C151.7,32.1,157.6,40.6,166,44.5z"/>
</g>
<g>
	<path fill="#FFFFFF" d="M59.4,27h-1.4l-1.6-2.7c-0.2-0.3-0.3-0.5-0.4-0.7s-0.3-0.3-0.4-0.4S55.2,23,55.1,23s-0.4-0.1-0.6-0.1h-0.9
		V27h-1.1v-9.8h2.9c0.4,0,0.8,0.1,1.2,0.2s0.7,0.3,0.9,0.5s0.5,0.5,0.6,0.8s0.2,0.7,0.2,1.1c0,0.3-0.1,0.7-0.2,0.9s-0.2,0.5-0.4,0.8
		S57.3,22,57,22.1s-0.6,0.3-0.9,0.4v0c0.2,0.1,0.3,0.2,0.4,0.2s0.2,0.2,0.3,0.3s0.2,0.3,0.3,0.4s0.2,0.3,0.4,0.6L59.4,27z
		 M53.5,18.3v3.6h1.6c0.3,0,0.6,0,0.8-0.1s0.5-0.2,0.6-0.4s0.3-0.4,0.4-0.6s0.2-0.5,0.2-0.8c0-0.5-0.2-0.9-0.5-1.2s-0.8-0.4-1.5-0.4
		H53.5z"/>
	<path fill="#FFFFFF" d="M65.9,23.8h-4.9c0,0.8,0.2,1.4,0.6,1.8s1,0.6,1.7,0.6c0.8,0,1.5-0.3,2.2-0.8v1.1c-0.6,0.4-1.4,0.7-2.4,0.7
		c-1,0-1.8-0.3-2.3-1s-0.8-1.5-0.8-2.7c0-1.1,0.3-2,0.9-2.7s1.4-1,2.3-1s1.6,0.3,2.1,0.9s0.8,1.4,0.8,2.5V23.8z M64.7,22.9
		c0-0.6-0.2-1.2-0.5-1.5s-0.7-0.5-1.3-0.5c-0.5,0-1,0.2-1.3,0.6s-0.6,0.9-0.7,1.5H64.7z"/>
	<path fill="#FFFFFF" d="M72.3,26.7c-0.5,0.3-1.2,0.5-1.9,0.5c-1,0-1.8-0.3-2.4-1s-0.9-1.5-0.9-2.5c0-1.2,0.3-2.1,1-2.8s1.5-1,2.6-1
		c0.6,0,1.2,0.1,1.6,0.3v1.1c-0.5-0.4-1.1-0.5-1.7-0.5c-0.7,0-1.3,0.3-1.8,0.8s-0.7,1.2-0.7,2c0,0.8,0.2,1.5,0.6,1.9s1,0.7,1.7,0.7
		c0.6,0,1.2-0.2,1.7-0.6V26.7z"/>
	<path fill="#FFFFFF" d="M79.6,23.8h-4.9c0,0.8,0.2,1.4,0.6,1.8s1,0.6,1.7,0.6c0.8,0,1.5-0.3,2.2-0.8v1.1c-0.6,0.4-1.4,0.7-2.4,0.7
		c-1,0-1.8-0.3-2.3-1s-0.8-1.5-0.8-2.7c0-1.1,0.3-2,0.9-2.7s1.4-1,2.3-1s1.6,0.3,2.1,0.9s0.8,1.4,0.8,2.5V23.8z M78.5,22.9
		c0-0.6-0.2-1.2-0.5-1.5s-0.7-0.5-1.3-0.5c-0.5,0-1,0.2-1.3,0.6s-0.6,0.9-0.7,1.5H78.5z"/>
	<path fill="#FFFFFF" d="M82.5,26L82.5,26l0,1h-1.1V16.7h1.1v4.6h0c0.6-0.9,1.4-1.4,2.4-1.4c0.9,0,1.6,0.3,2.1,0.9s0.8,1.5,0.8,2.5
		c0,1.2-0.3,2.1-0.9,2.8s-1.3,1.1-2.3,1.1C83.7,27.2,83,26.8,82.5,26z M82.5,23.2v1c0,0.6,0.2,1.1,0.6,1.5s0.9,0.6,1.4,0.6
		c0.7,0,1.2-0.3,1.6-0.8s0.6-1.2,0.6-2.2c0-0.8-0.2-1.4-0.5-1.8s-0.8-0.7-1.5-0.7c-0.7,0-1.2,0.2-1.6,0.7S82.5,22.5,82.5,23.2z"/>
	<path fill="#FFFFFF" d="M95.2,23.8h-4.9c0,0.8,0.2,1.4,0.6,1.8s1,0.6,1.7,0.6c0.8,0,1.5-0.3,2.2-0.8v1.1c-0.6,0.4-1.4,0.7-2.4,0.7
		c-1,0-1.8-0.3-2.3-1s-0.8-1.5-0.8-2.7c0-1.1,0.3-2,0.9-2.7s1.4-1,2.3-1s1.6,0.3,2.1,0.9s0.8,1.4,0.8,2.5V23.8z M94.1,22.9
		c0-0.6-0.2-1.2-0.5-1.5s-0.7-0.5-1.3-0.5c-0.5,0-1,0.2-1.3,0.6s-0.6,0.9-0.7,1.5H94.1z"/>
	<path fill="#FFFFFF" d="M100.5,21.2c-0.2-0.2-0.5-0.2-0.8-0.2c-0.5,0-0.9,0.2-1.2,0.7S98,22.7,98,23.5V27h-1.1v-7H98v1.4h0
		c0.2-0.5,0.4-0.9,0.7-1.2s0.7-0.4,1.1-0.4c0.3,0,0.5,0,0.7,0.1V21.2z"/>
</g>
<g>
	<path fill="#FFFFFF" d="M40.7,11.2c0.3-2.6-0.3-3.9-0.3-3.9C31.2-0.7,13,16,10.5,32.4C18.7,9.9,39.6,8.7,40.7,11.2z"/>
	<path fill="#FFFFFF" d="M40.4,7.3c0,0,0.7,0.8,1.5,2.1C41.6,8.8,41.1,8.1,40.4,7.3z"/>
	<path fill="#FFFFFF" d="M40.7,11.2c-0.2,1.7-0.9,3.9-2.5,6.7c-4.1,7-7.9,9.3-7.9,9.3L29.2,24l-7.8,14.8l16.1-5.6l-2.6-1.5
		c0,0,6.7-5.6,9-11.6c1.6-3.9-0.5-8.2-2-10.6c-0.8-1.3-1.5-2.1-1.5-2.1S41.1,8.6,40.7,11.2z"/>
</g>
</svg>
