<?xml version="1.0" encoding="utf-8"?>
<!-- Generator: Adobe Illustrator 18.0.0, SVG Export Plug-In . SVG Version: 6.00 Build 0)  -->
<!DOCTYPE svg PUBLIC "-//W3C//DTD SVG 1.1//EN" "http://www.w3.org/Graphics/SVG/1.1/DTD/svg11.dtd">
<svg version="1.1" id="Camada_1" xmlns="http://www.w3.org/2000/svg" xmlns:xlink="http://www.w3.org/1999/xlink" x="0px" y="0px"
	 viewBox="0 0 241.4 68" enable-background="new 0 0 241.4 68" xml:space="preserve">
<rect x="0.5" y="11" fill="none" stroke="#39B54A" stroke-miterlimit="10" width="240.4" height="56.5"/>
<rect x="42.9" y="0" fill="#FFFFFF" width="155.7" height="24"/>
<text transform="matrix(1 0 0 1 76.2224 15.9951)" fill="#39B54A" font-family="'MyriadPro-Regular'" font-size="18.3601">VENDEMOS</text>
</svg>
