<?xml version="1.0" encoding="utf-8"?>
<!-- Generator: Adobe Illustrator 16.0.0, SVG Export Plug-In . SVG Version: 6.00 Build 0)  -->
<!DOCTYPE svg PUBLIC "-//W3C//DTD SVG 1.1//EN" "http://www.w3.org/Graphics/SVG/1.1/DTD/svg11.dtd">
<svg version="1.1" id="Layer_1" xmlns="http://www.w3.org/2000/svg" xmlns:xlink="http://www.w3.org/1999/xlink" x="0px" y="0px"
	 width="194.75px" height="24.75px" viewBox="0 0 194.75 24.75" enable-background="new 0 0 194.75 24.75" xml:space="preserve">
<path fill="#FFFFFF" d="M188.5,24.75H6.25C2.798,24.75,0,21.952,0,18.5V6.25C0,2.798,2.798,0,6.25,0H188.5
	c3.451,0,6.25,2.798,6.25,6.25V18.5C194.75,21.952,191.952,24.75,188.5,24.75z"/>
<path fill="#B7CA6C" d="M18.492,11.674h-1.128V8.51h-0.001c-0.017-2.229-1.828-4.031-4.061-4.031c-2.233,0-4.044,1.803-4.061,4.031
	H9.239v3.165H8.11c-0.248,0-0.451,0.204-0.451,0.451v6.318c0,0.248,0.203,0.452,0.451,0.452h10.381c0.249,0,0.452-0.204,0.452-0.452
	v-6.318C18.943,11.878,18.74,11.674,18.492,11.674z M10.819,8.51c0,0.005,0.001,0.008,0.001,0.012
	c0.01-1.358,1.123-2.463,2.481-2.463c1.358,0,2.471,1.105,2.481,2.463c0-0.003,0.001-0.007,0.001-0.012v3.165h-4.965V8.51z
	 M14.15,16.427h-1.698l0.545-1.59c-0.347-0.126-0.597-0.454-0.597-0.845c0-0.498,0.403-0.9,0.9-0.9c0.497,0,0.901,0.402,0.901,0.9
	c0,0.391-0.25,0.719-0.597,0.845L14.15,16.427z"/>
</svg>
